…
BuscadoR RLK Finding results

A tibble (dataframe) of one row per receptor protein found (ideal for
exporting) can be created

``` r
to_tibble(b)
#> # A tibble: 503 × 11
#>    seq_name    group       evidence cut_site tm_start tm_end pfams_hit pfams_acc
#>    <chr>       <chr>       <chr>       <int>    <int>  <int> <chr>     <chr>    
#>  1 AT1G49730.1 unclassifi… t1             55      285    305 Pkinase;… PF00069.…
#>  2 AT1G65800.1 LRR+OTHER-… t7             27      440    460 PK_Tyr_S… PF07714.…
#>  3 AT1G65790.1 OTHER-RK    PFAM           27      436    456 PK_Tyr_S… PF07714.…
#>  4 AT1G55610.1 LRR-RK      PFAM+BL…       24      777    797 LRR_8;LR… PF13855.…
#>  5 AT1G10850.1 LRR-RK      PFAM+BL…       32      259    279 Pkinase;… PF00069.…
#>  6 AT1G70530.1 OTHER-RK    PFAM+BL…       20      261    281 PK_Tyr_S… PF07714.…
#>  7 AT1G70520.1 OTHER-RK    PFAM+BL…       29      261    281 Pkinase;… PF00069.…
#>  8 AT1G16260.1 OTHER-RK    PFAM+BL…       23      316    336 PK_Tyr_S… PF07714.…
#>  9 AT1G17240.1 LRR-RP      PFAM+BL…       44      708    728 LRR_8;LR… PF13855.…
#> 10 AT1G17230.1 LRR+OTHER-… t6             23      735    755 Pkinase;… PF00069.…
#> # … with 493 more rows, and 3 more variables: pfams_loc <chr>, blast_hit <chr>,
#> #   blast_loc <chr>
```

Raw search results from the databases can be extracted

``` r
pfam_results(b)
#> # A tibble: 4,831 × 11
#>    seq_name  hit   acc      eval seq_from seq_to hit_from hit_to base_acc b_type
#>    <chr>     <chr> <chr>   <dbl>    <dbl>  <dbl>    <int>  <int> <chr>    <chr> 
#>  1 AT1G1760… LRR_3 PF07… 2.5e- 8      604    622        1     19 PF07725  LRR_P…
#>  2 AT1G1268… Pkin… PF00… 7.1e-72      107    355        1    264 PF00069  KINAS…
#>  3 AT1G1268… PK_T… PF07… 2.7e-36      109    348        3    254 PF07714  KINAS…
#>  4 AT1G1268… Kina… PF14… 1  e- 9      209    343      154    288 PF14531  KINAS…
#>  5 AT1G1268… ABC1  PF03… 2.6e- 7      173    251      142    219 PF03109  KINAS…
#>  6 AT1G7345… Pkin… PF00… 1.3e-51      841   1143        1    264 PF00069  KINAS…
#>  7 AT1G7345… PK_T… PF07… 2.7e-19      843   1051        3    212 PF07714  KINAS…
#>  8 AT1G0944… Pkin… PF00… 3.7e-50      158    426        2    260 PF00069  KINAS…
#>  9 AT1G0944… PK_T… PF07… 6.3e-48      159    428        3    259 PF07714  KINAS…
#> 10 AT1G7346… Pkin… PF00… 1.4e-51      858   1160        1    264 PF00069  KINAS…
#> # … with 4,821 more rows, and 1 more variable: pfam_length <dbl>
```
…
A dataframe compatible with the `drawProteins` package [here on
bioconductor](https://bioconductor.org/packages/release/bioc/vignettes/drawProteins/inst/doc/drawProteins_BiocStyle.html)
can be created for further plotting work. Note the plot is a `ggplot2`
object and can be styled using that package too.

``` r
dp <- as_drawProteins(b)
```

The definitions used for the classification can be returned

``` r
definiciones()
#> # A tibble: 64 × 10
#>    group    evidence   SP    TM    kinase_pfam lrr_pfam other_pfam at_lrr_blast
#>    <chr>    <chr>      <lgl> <lgl> <lgl>       <lgl>    <lgl>      <lgl>       
#>  1 LRR-RK   PFAM       TRUE  TRUE  TRUE        TRUE     FALSE      FALSE       
#>  2 LRR-RK   BLAST      TRUE  TRUE  TRUE        FALSE    FALSE      TRUE        
#>  3 LRR-RK   PFAM+BLAST TRUE  TRUE  TRUE        TRUE     FALSE      TRUE        
#>  4 LRR-RP   PFAM       TRUE  TRUE  FALSE       TRUE     FALSE      FALSE       
#>  5 LRR-RP   BLAST      TRUE  TRUE  FALSE       FALSE    FALSE      TRUE        
#>  6 LRR-RP   PFAM+BLAST TRUE  TRUE  FALSE       TRUE     FALSE      TRUE        
#>  7 OTHER-RK PFAM       TRUE  TRUE  TRUE        FALSE    TRUE       FALSE       
#>  8 OTHER-RK BLAST      TRUE  TRUE  TRUE        FALSE    FALSE      FALSE       
#>  9 OTHER-RK PFAM+BLAST TRUE  TRUE  TRUE        FALSE    TRUE       FALSE       
#> 10 OTHER-RP PFAM       TRUE  TRUE  FALSE       FALSE    TRUE       FALSE       
#> # … with 54 more rows, and 2 more variables: at_other_blast <lgl>,
#> #   at_unspec_blast <lgl>
```
…
